Gov 50 Final Project
…
An observed pattern to help support my hypothesis would be a higher alcohol consumption in the group that receives less educational support whereas the group that receives educational support consumes less alcohol. However, a pattern that would disprove my hypothesis would be an inverse effect of educational support where the treatment group consumes more alcohol than the control group.

Finalstone Project 3

library(tidyverse)
library(ggplot2)
library(dplyr)

portugese <- read_csv("data/student-por.csv")
math <- read_csv("data/student-mat.csv")

portugese

# A tibble: 649 × 33
   school sex     age address famsize Pstatus  Medu  Fedu Mjob   Fjob 
   <chr>  <chr> <dbl> <chr>   <chr>   <chr>   <dbl> <dbl> <chr>  <chr>
 1 GP     F        18 U       GT3     A           4     4 at_ho… teac…
 2 GP     F        17 U       GT3     T           1     1 at_ho… other
 3 GP     F        15 U       LE3     T           1     1 at_ho… other
 4 GP     F        15 U       GT3     T           4     2 health serv…
 5 GP     F        16 U       GT3     T           3     3 other  other
 6 GP     M        16 U       LE3     T           4     3 servi… other
 7 GP     M        16 U       LE3     T           2     2 other  other
 8 GP     F        17 U       GT3     A           4     4 other  teac…
 9 GP     M        15 U       LE3     A           3     2 servi… other
10 GP     M        15 U       GT3     T           3     4 other  other
# ℹ 639 more rows
# ℹ 23 more variables: reason <chr>, guardian <chr>,
#   traveltime <dbl>, studytime <dbl>, failures <dbl>,
#   schoolsup <chr>, famsup <chr>, paid <chr>, activities <chr>,
#   nursery <chr>, higher <chr>, internet <chr>, romantic <chr>,
#   famrel <dbl>, freetime <dbl>, goout <dbl>, Dalc <dbl>,
#   Walc <dbl>, health <dbl>, absences <dbl>, G1 <dbl>, G2 <dbl>, …

math

# A tibble: 395 × 33
   school sex     age address famsize Pstatus  Medu  Fedu Mjob   Fjob 
   <chr>  <chr> <dbl> <chr>   <chr>   <chr>   <dbl> <dbl> <chr>  <chr>
 1 GP     F        18 U       GT3     A           4     4 at_ho… teac…
 2 GP     F        17 U       GT3     T           1     1 at_ho… other
 3 GP     F        15 U       LE3     T           1     1 at_ho… other
 4 GP     F        15 U       GT3     T           4     2 health serv…
 5 GP     F        16 U       GT3     T           3     3 other  other
 6 GP     M        16 U       LE3     T           4     3 servi… other
 7 GP     M        16 U       LE3     T           2     2 other  other
 8 GP     F        17 U       GT3     A           4     4 other  teac…
 9 GP     M        15 U       LE3     A           3     2 servi… other
10 GP     M        15 U       GT3     T           3     4 other  other
# ℹ 385 more rows
# ℹ 23 more variables: reason <chr>, guardian <chr>,
#   traveltime <dbl>, studytime <dbl>, failures <dbl>,
#   schoolsup <chr>, famsup <chr>, paid <chr>, activities <chr>,
#   nursery <chr>, higher <chr>, internet <chr>, romantic <chr>,
#   famrel <dbl>, freetime <dbl>, goout <dbl>, Dalc <dbl>,
#   Walc <dbl>, health <dbl>, absences <dbl>, G1 <dbl>, G2 <dbl>, …
…
